{
  "variants": {
    "facing=north": {
      "model": "simplelife:block/part_back_plate"
    },
    "facing=east": {
      "model": "simplelife:block/part_back_plate",
      "y": 90
    },
    "facing=south": {
      "model": "simplelife:block/part_back_plate",
      "y": 180
    },
    "facing=west": {
      "model": "simplelife:block/part_back_plate",
      "y": 270
    }
  }
}