{
  "type": "minecraft:crafting_shaped",
  "pattern": [
    "BBB",
    "PPP",
    "   "
  ],
  "key": {
    "B": {
      "tag": "minecraft:buttons"
    },
    "P": {
      "item": "minecraft:stone_pressure_plate"
    }
  },
  "result": {
    "item": "simplelife:keyboard",
    "count": 1
  }
}