{
  "type": "minecraft:crafting_shaped",
  "pattern": [
    "C  ",
    "G  ",
    "   "
  ],
  "key": {
    "C": {
      "item": "minecraft:cobblestone"
    },
    "G": {
      "item": "minecraft:glass"
    }
  },
  "result": {
    "item": "simplelife:simple_jar",
    "count": 1
  }
}