{
  "type": "minecraft:crafting_shaped",
  "pattern": [
    " T ",
    "LCR",
    " B "
  ],
  "key": {
    "C": {
      "item": "minecraft:chest"
    },
    "T": {
      "item": "simplelife:part_table_top"
    },
    "L": {
      "item": "simplelife:part_left_plate"
    },
    "R": {
      "item": "simplelife:part_right_plate"
    },
    "B": {
      "item": "simplelife:part_back_plate"
    }
  },
  "result": {
    "item": "simplelife:worktable",
    "count": 1
  }
}